How to Clean your Data Quickly With Tidyverse
…
---
# filter()
## Examples

A best-practice way to filter by more than one condition is using a selection vector:

```r
salaries %>% 
* filter(industry %in% c("Media", "Health", "Technology")) %>%
  select(role, base_salary)
```

```
## # A tibble: 53 x 2
##    role           base_salary
##    <chr>                <dbl>
##  1 Administrative       57000
##  2 Administrative       50000
##  3 Administrative       44840
##  4 Administrative       58000
##  5 Administrative           2
##  6 Administrative       68000
##  7 Analyst              37000
##  8 Analyst              56000
##  9 Analyst             109000
## 10 Analyst              43000
## # ... with 43 more rows
```
…
